ALA_1  N                   N,HN1,HN2,HN3                           N,HD,HD,HD
ALA_2  CC                  CA,CB                                   C,C
ALA_3  C=O                 C,O                                     C,OA
ARG_1  N                   N,HN3,HN2,HN1                           N,HD,HD,HD
ARG_2  C                   CA                                      C
ARG_3  C                   CB                                      C
ARG_4  C                   CG                                      C
ARG_5  C                   CD                                      C
ARG_6  NC(=[NH2])N         NE,CZ,NH1,NH2,2HH1,1HH1,2HH2,1HH2,HE    N,C,N,N,HD,HD,HD,HD,HD
ARG_7  C=O                 C,O                                     C,OA
ASN_1  N                   N,HN3,HN2,HN1                           N,HD,HD,HD
ASN_2  C                   CA                                      C
ASN_3  C                   CB                                      C
ASN_4  NC=O                CG,ND2,2HD2,1HD2,OD1                    C,N,HD,HD,OA
ASN_5  C=O                 C,O                                     C,OA
ASP_1  N                   N,HN3,HN2,HN1                           N,HD,HD,HD
ASP_2  C                   CA                                      C
ASP_3  C                   CB                                      C
ASP_4  OC=O                CG,OD1,OD2                              C,OA,OA
ASP_5  C=O                 C,O                                     C,OA
CYS_1  N                   N,HN3,HN2,HN1                           N,HD,HD,HD
CYS_2  C                   CA                                      C
CYS_3  CS                  CB,SG                                   C,SA
CYS_4  C=O                 C,O                                     C,OA
GLN_1  N                   N,HN3,HN2,HN1                           N,HD,HD,HD
GLN_2  C                   CA                                      C
GLN_3  C                   CB                                      C
GLN_4  C                   CG                                      C
GLN_5  NC=O                CD,NE2,2HE2,1HE2,OE1                    C,N,HD,HD,OA
GLN_6  C=O                 C,O                                     C,OA
GLU_1  N                   N,HN3,HN2,HN1                           N,HD,HD,HD
GLU_2  C                   CA                                      C
GLU_3  C                   CB                                      C
GLU_4  C                   CG                                      C
GLU_5  OC=O                CD,OE1,OE2                              C,OA,OA
GLU_6  C=O                 C,O                                     C,OA
GLY_1  N                   N,HN1,HN2,HN3                           N,HD,HD,HD
GLY_2  C                   CA                                      C
GLY_3  C=O                 C,O                                     C,OA
HIS_1  N                   N,HN3,HN2,HN1                           N,HD,HD,HD
HIS_2  C                   CA                                      C
HIS_3  C                   CB                                      C
HIS_4  C1NC=CN1            CG,CD2,NE2,CE1,HE2,ND1,HD1              A,A,N,A,HD,N,HD
HIS_5  C=O                 C,O                                     C,OA
ILE_1  N                   N,HN3,HN2,HN1                           N,HD,HD,HD
ILE_2  C                   CA                                      C
ILE_3  CC                  CB,CG2                                  C,C
ILE_4  CC                  CG1,CD1                                 C,C
ILE_5  C=O                 C,O                                     C,OA
LEU_1  N                   N,HN3,HN2,HN1                           N,HD,HD,HD
LEU_2  C                   CA                                      C
LEU_3  C                   CB                                      C
LEU_4  CCC                 CG,CD1,CD2                              C,C,C
LEU_5  C=O                 C,O                                     C,OA
LYS_1  N                   N,HN3,HN2,HN1                           N,HD,HD,HD
LYS_2  C                   CA                                      C
LYS_3  C                   CB                                      C
LYS_4  C                   CG                                      C
LYS_5  C                   CD                                      C
LYS_6  C                   CE                                      C
LYS_7  N                   NZ,HZ3,HZ2,HZ1                          N,HD,HD,HD
LYS_8  C=O                 C,O                                     C,OA
MET_1  N                   N,HN3,HN2,HN1                           N,HD,HD,HD
MET_2  C                   CA                                      C
MET_3  C                   CB                                      C
MET_4  C                   CG                                      C
MET_5  CS                  SD,CE                                   SA,C
MET_6  C=O                 C,O                                     C,OA
PHE_1  N                   N,HN3,HN2,HN1                           N,HD,HD,HD
PHE_2  C                   CA                                      C
PHE_3  C                   CB                                      C
PHE_4  c1ccccc1            CG,CD2,CE2,CZ,CE1,CD1                   A,A,A,A,A,A
PHE_5  C=O                 C,O                                     C,OA
PRO_1  [NH2]1C=CC=C1       N,HN1,HN2,CA,CB,CG,CD                   N,HD,HD,A,A,A,A
PRO_2  C=O                 C,O                                     C,OA
SER_1  N                   N,HN3,HN2,HN1                           N,HD,HD,HD
SER_2  C                   CA                                      C
SER_3  C                   CB                                      C
SER_4  O                   OG,HG                                   OA,HD
SER_5  C=O                 C,O                                     C,OA
THR_1  N                   N,HN3,HN2,HN1                           N,HD,HD,HD
THR_2  C                   CA                                      C
THR_3  CC                  CB,CG2                                  C,C
THR_4  O                   OG1,HG1                                 OA,HD
THR_5  C=O                 C,O                                     C,OA
TRP_1  N                   N,HN3,HN2,HN1                           N,HD,HD,HD
TRP_2  C                   CA                                      C
TRP_3  C                   CB                                      C
TRP_4  c1ccc2c(c1)[nH]cc2  CG,CD1,CD2,CE2,CE3,NE1,HE1,CZ2,CZ3,CH2  A,A,A,A,A,N,HD,A,A,A
TRP_5  C=O                 C,O                                     C,OA
TYR_1  N                   N,HN3,HN2,HN1                           N,HD,HD,HD
TYR_2  C                   CA                                      C
TYR_3  C                   CB                                      C
TYR_4  c1ccccc1            CG,CD1,CD2,CE1,CE2,CZ                   A,A,A,A,A,A
TYR_5  O                   OH,HH                                   OA,HD
TYR_6  C=O                 C,O                                     C,OA
VAL_1  N                   N,HN3,HN2,HN1                           N,HD,HD,HD
VAL_2  C                   CA                                      C
VAL_3  CCC                 CB,CG1,CG2                              C,C,C
VAL_4  C=O                 C,O                                     C,OA
